RTOS_MultiSensor_System.sim/sim_1/behav/xsim/rtos_simulation.vcd
$date
   Fri Dec 26 00:01:00 2025
$end

$version
  2025.2
  $dumpfile ("rtos_simulation.vcd") 
$end

$timescale
  1ps
$end

$scope module rtos_testbench $end
$var reg 1 ! clk $end
$var reg 1 " rst_n $end
$var reg 16 # temp_sensor_data [15:0] $end
$var reg 16 $ pressure_sensor_data [15:0] $end
$var reg 8 % proximity_sensor_data [7:0] $end
$var reg 1 & sensor_valid $end
$var wire 1 ' cooling_fan_ctrl $end
$var wire 1 ( pressure_valve_ctrl $end
$var wire 1 ) alarm_signal $end
$var wire 8 * system_status [7:0] $end
$var wire 4 + current_task [3:0] $end
$var wire 32 , task_execution_count [31:0] $end
$var integer 32 - test_time [31:0] $end
$var integer 32 . i [31:0] $end
$var reg 32 / error_count [31:0] $end
$var reg 32 0 test_count [31:0] $end
$scope module DUT $end
$var wire 1 1 clk $end
$var wire 1 2 rst_n $end
$var wire 16 3 temp_sensor_data [15:0] $end
$var wire 16 4 pressure_sensor_data [15:0] $end
$var wire 8 5 proximity_sensor_data [7:0] $end
$var wire 1 6 sensor_valid $end
$var reg 1 7 cooling_fan_ctrl $end
$var reg 1 8 pressure_valve_ctrl $end
$var reg 1 9 alarm_signal $end
$var reg 8 : system_status [7:0] $end
$var reg 4 ; current_task [3:0] $end
$var reg 32 < task_execution_count [31:0] $end
$var reg 32 = tick_counter [31:0] $end
$var reg 1 > rtos_tick $end
$var reg 4 ? task_queue_head [3:0] $end
$var reg 4 @ task_queue_tail [3:0] $end
$var reg 4 A next_task [3:0] $end
$var reg 1 B task_ready $end
$var reg 16 C temp_filtered [15:0] $end
$var reg 16 D pressure_filtered [15:0] $end
$var reg 8 E proximity_filtered [7:0] $end
$var reg 2 F buffer_index [1:0] $end
$var reg 1 G temp_data_ready $end
$var reg 1 H pressure_data_ready $end
$var reg 1 I proximity_data_ready $end
$var reg 1 J all_sensors_processed $end
$var reg 16 K temp_error [15:0] $end
$var reg 16 L pressure_error [15:0] $end
$var reg 1 M fan_timer $end
$var reg 1 N valve_timer $end
$var reg 4 O execution_state [3:0] $end
$upscope $end
$scope function temp_to_sensor $end
$var reg 16 P temp_to_sensor [15:0] $end
$var real 32 Q temp_celsius $end
$upscope $end
$scope function pressure_to_sensor $end
$var reg 16 R pressure_to_sensor [15:0] $end
$var real 32 S pressure_kpa $end
$upscope $end
$scope function distance_to_sensor $end
$var reg 8 T distance_to_sensor [7:0] $end
$var real 32 U distance_cm $end
$upscope $end
$upscope $end
$enddefinitions $end

#0
$dumpvars
0!
0"
b0 #
b0 $
b0 %
0&
0'
0(
0)
b1 *
b0 +
b0 ,
bx -
bx .
b0 /
b0 0
01
02
b0 3
b0 4
b0 5
06
07
08
09
b1 :
b0 ;
b0 <
b0 =
0>
b0 ?
b0 @
b0 A
0B
b0 C
b0 D
b0 E
b0 F
0G
0H
0I
0J
bx K
bx L
0M
0N
b0 O
bx P
r0 Q
bx R
r0 S
bx T
r0 U
$end

#5000
1!
11

#10000
0!
01

#15000
1!
11

#20000
0!
01

#25000
1!
11

#30000
0!
01

#35000
1!
11

#40000
0!
01

#45000
1!
11

#50000
0!
01

#55000
1!
11

#60000
0!
01

#65000
1!
11

#70000
0!
01

#75000
1!
11

#80000
0!
01

#85000
1!
11

#90000
0!
01

#95000
1!
11

#100000
0!
1"
01
12

#105000
1!
11
b1 =
b10 @
1J

#110000
0!
01

#115000
1!
11
b10 =
b100 @

#120000
0!
01

#125000
1!
11
b11 =
b110 @

#130000
0!
01

#135000
1!
11
b100 =

#140000
0!
01

#145000
1!
11
b101 =

#150000
0!
01

#155000
1!
11
b110 =

#160000
0!
01

#165000
1!
11
b111 =

#170000
0!
01

#175000
1!
11
b1000 =

#180000
0!
01

#185000
1!
11
b1001 =

#190000
0!
01

#195000
1!
11
b1010 =

#200000
0!
b100000000000000 #
b1000000000000000 $
b10011001 %
1&
b1 0
01
b100000000000000 3
b1000000000000000 4
b10011001 5
16
b100000000000000 P
r25 Q
b1000000000000000 R
r100 S
b10011001 T
r30 U

#205000
1!
11
b1011 =

#210000
0!
01

#215000
1!
11
b1100 =

#220000
0!
01

#225000
1!
11
b1101 =

#230000
0!
01

#235000
1!
11
b1110 =

#240000
0!
01

#245000
1!
11
b1111 =

#250000
0!
01

#255000
1!
11
b10000 =

#260000
0!
01

#265000
1!
11
b10001 =

#270000
0!
01

#275000
1!
11
b10010 =

#280000
0!
01

#285000
1!
11
b10011 =

#290000
0!
01

#295000
1!
11
b10100 =

#300000
0!
01

#305000
1!
11
b10101 =

#310000
0!
01

#315000
1!
11
b10110 =

#320000
0!
01

#325000
1!
11
b10111 =

#330000
0!
01

#335000
1!
11
b11000 =

#340000
0!
01

#345000
1!
11
b11001 =

#350000
0!
01

#355000
1!
11
b11010 =

#360000
0!
01

#365000
1!
11
b11011 =

#370000
0!
01

#375000
1!
11
b11100 =

#380000
0!
01

#385000
1!
11
b11101 =

#390000
0!
01

#395000
1!
11
b11110 =

#400000
0!
01

#405000
1!
11
b11111 =

#410000
0!
01

#415000
1!
11
b100000 =

#420000
0!
01

#425000
1!
11
b100001 =

#430000
0!
01

#435000
1!
11
b100010 =

#440000
0!
01

#445000
1!
11
b100011 =

#450000
0!
01

#455000
1!
11
b100100 =

#460000
0!
01

#465000
1!
11
b100101 =

#470000
0!
01

#475000
1!
11
b100110 =

#480000
0!
01

#485000
1!
11
b100111 =

#490000
0!
01

#495000
1!
11
b101000 =

#500000
0!
01

#505000
1!
11
b101001 =

#510000
0!
01

#515000
1!
11
b101010 =

#520000
0!
01

#525000
1!
11
b101011 =

#530000
0!
01

#535000
1!
11
b101100 =

#540000
0!
01

#545000
1!
11
b101101 =

#550000
0!
01

#555000
1!
11
b101110 =

#560000
0!
01

#565000
1!
11
b101111 =

#570000
0!
01

#575000
1!
11
b110000 =

#580000
0!
01

#585000
1!
11
b110001 =

#590000
0!
01

#595000
1!
11
b110010 =

#600000
0!
01

#605000
1!
11
b110011 =

#610000
0!
01

#615000
1!
11
b110100 =

#620000
0!
01

#625000
1!
11
b110101 =

#630000
0!
01

#635000
1!
11
b110110 =

#640000
0!
01

#645000
1!
11
b110111 =

#650000
0!
01

#655000
1!
11
b111000 =

#660000
0!
01

#665000
1!
11
b111001 =

#670000
0!
01

#675000
1!
11
b111010 =

#680000
0!
01

#685000
1!
11
b111011 =

#690000
0!
01

#695000
1!
11
b111100 =

#700000
0!
01

#705000
1!
11
b111101 =

#710000
0!
01

#715000
1!
11
b111110 =

#720000
0!
01

#725000
1!
11
b111111 =

#730000
0!
01

#735000
1!
11
b1000000 =

#740000
0!
01

#745000
1!
11
b1000001 =

#750000
0!
01

#755000
1!
11
b1000010 =

#760000
0!
01

#765000
1!
11
b1000011 =

#770000
0!
01

#775000
1!
11
b1000100 =

#780000
0!
01

#785000
1!
11
b1000101 =

#790000
0!
01

#795000
1!
11
b1000110 =

#800000
0!
01

#805000
1!
11
b1000111 =

#810000
0!
01

#815000
1!
11
b1001000 =

#820000
0!
01

#825000
1!
11
b1001001 =

#830000
0!
01

#835000
1!
11
b1001010 =

#840000
0!
01

#845000
1!
11
b1001011 =

#850000
0!
01

#855000
1!
11
b1001100 =

#860000
0!
01

#865000
1!
11
b1001101 =

#870000
0!
01

#875000
1!
11
b1001110 =

#880000
0!
01

#885000
1!
11
b1001111 =

#890000
0!
01

#895000
1!
11
b1010000 =

#900000
0!
01

#905000
1!
11
b1010001 =

#910000
0!
01

#915000
1!
11
b1010010 =

#920000
0!
01

#925000
1!
11
b1010011 =

#930000
0!
01

#935000
1!
11
b1010100 =

#940000
0!
01

#945000
1!
11
b1010101 =

#950000
0!
01

#955000
1!
11
b1010110 =

#960000
0!
01

#965000
1!
11
b1010111 =

#970000
0!
01

#975000
1!
11
b1011000 =

#980000
0!
01

#985000
1!
11
b1011001 =

#990000
0!
01

#995000
1!
11
b1011010 =

